<?xml version='1.0' encoding='UTF-8' standalone='yes' ?>
<kml xmlns="http://earth.google.com/kml/2.0" xmlns:atom="http://www.w3.org/2005/Atom">
  <Document>
    <atom:author>
      <atom:name>OutdoorTracker running on MI-ONE Plus</atom:name>
    </atom:author>
    <name>上班路线</name>
    <description>总时间: 0:40:14
距离: 21.62 km
最大速度: 74.70 km/h
平均速度: 32.24 km/h
移动时间: 0:38:41
平均移动速度: 33.53 km/h
最大海拨: 1903.40 m
最小海拔: 1833.82 m
</description>
    <Style id="track">
      <LineStyle>
        <color>7f0000ff</color>
        <width>4</width>
      </LineStyle>
    </Style>
    <Style id="ICON_START">
      <IconStyle>
        <scale>1.3</scale>
        <Icon>
          <href>http://maps.google.com/mapfiles/kml/paddle/grn-circle.png</href>
        </Icon>
        <hotSpot x="32" y="1" xunits="pixels" yunits="pixels" />
      </IconStyle>
    </Style>
    <Style id="ICON_PAUSE">
      <IconStyle>
        <scale>1.3</scale>
        <Icon>
          <href>http://maps.google.com/mapfiles/kml/paddle/ylw-square.png</href>
        </Icon>
        <hotSpot x="32" y="1" xunits="pixels" yunits="pixels" />
      </IconStyle>
    </Style>
    <Style id="ICON_RESUME">
      <IconStyle>
        <scale>1.3</scale>
        <Icon>
          <href>http://maps.google.com/mapfiles/kml/paddle/ylw-circle.png</href>
        </Icon>
        <hotSpot x="32" y="1" xunits="pixels" yunits="pixels" />
      </IconStyle>
    </Style>
    <Style id="ICON_END">
      <IconStyle>
        <scale>1.3</scale>
        <Icon>
          <href>http://maps.google.com/mapfiles/kml/paddle/red-square.png</href>
        </Icon>
        <hotSpot x="32" y="1" xunits="pixels" yunits="pixels" />
      </IconStyle>
    </Style>
    <Style id="ICON_PHOTOMARK">
      <IconStyle>
        <scale>1.3</scale>
        <Icon>
          <href>http://maps.google.com/mapfiles/kml/pushpin/blue-pushpin.png</href>
        </Icon>
        <hotSpot x="20" y="2" xunits="pixels" yunits="pixels" />
      </IconStyle>
    </Style>
    <Style id="ICON_WAYMARK">
      <IconStyle>
        <scale>1.3</scale>
        <Icon>
          <href>http://maps.google.com/mapfiles/kml/pushpin/ylw-pushpin.png</href>
        </Icon>
        <hotSpot x="20" y="2" xunits="pixels" yunits="pixels" />
      </IconStyle>
    </Style>
    <Folder>
      <name>Waypoints</name>
    </Folder>
    <Folder>
      <name>Tracks</name>
      <Placemark>
        <name>起点 (2012-07-05 07:44:21)</name>
        <description>海拔: 1860.10 m
精度: 19.00 m</description>
        <TimeStamp>
          <when>2012-07-05T07:44:21Z</when>
        </TimeStamp>
        <styleUrl>#ICON_START</styleUrl>
        <Point>
          <coordinates>102.66927713,25.06721774,1860.0999755859375</coordinates>
        </Point>
      </Placemark>
      <Placemark>
        <styleUrl>#track</styleUrl>
        <MultiGeometry>
          <LineString>
            <coordinates>102.66927713,25.06721774,1860.0999755859375
102.66940093,25.06719146,1864.300048828125
102.66953106,25.06714274,1859.699951171875
102.66968865,25.06704862,1863.0
102.66984529,25.06696113,1864.5
102.6700103,25.06689963,1863.9000244140625
102.67018293,25.0668149,1864.4000244140625
102.67036987,25.06674595,1866.699951171875
102.67055369,25.06668397,1867.300048828125
102.67073097,25.06660892,1866.199951171875
102.670899,25.06652707,1867.4000244140625
102.67104288,25.06642634,1867.5999755859375
102.6711614,25.06630917,1867.300048828125
102.67123314,25.06622525,1867.5999755859375
102.67128186,25.0661586,1867.699951171875
102.67134674,25.06609681,1867.5
102.67139523,25.06604985,1867.199951171875
102.67146116,25.06599276,1867.800048828125
102.671534,25.06589595,1868.5
102.67163643,25.06578234,1868.0
102.67174923,25.06565359,1867.9000244140625
102.67185085,25.06551435,1867.699951171875
102.67196537,25.06537906,1866.9000244140625
102.67213953,25.0652605,1869.300048828125
102.67234206,25.0651253,1871.300048828125
102.67250429,25.06495353,1870.9000244140625
102.67266362,25.06482396,1869.300048828125
102.67280954,25.06466897,1869.199951171875
102.67294746,25.06451701,1869.0
102.67309969,25.06435469,1869.300048828125
102.67326503,25.06420774,1869.5
102.67335814,25.06409499,1869.300048828125
102.67341474,25.06402942,1868.9000244140625
102.67347838,25.06402673,1870.199951171875
102.67351373,25.06405841,1870.699951171875
102.67356092,25.06403995,1871.199951171875
102.67354472,25.06399243,1873.0
102.67357317,25.06393688,1873.800048828125
102.67363194,25.06390015,1874.300048828125
102.67371859,25.0638731,1873.5999755859375
102.673805,25.06386927,1873.0999755859375
102.67387579,25.06391273,1871.199951171875
102.67291564,25.0668206,1904.4000244140625
102.67281366,25.06704707,1905.4000244140625
102.67271244,25.0672726,1894.5
102.67245909,25.06770082,1878.5
102.67245079,25.06777372,1873.4000244140625
102.67245093,25.06783478,1875.5
102.67254084,25.06780877,1872.5999755859375
102.67270644,25.06783127,1880.300048828125
102.67283165,25.06781325,1876.800048828125
102.67295651,25.06778144,1873.0
102.67317126,25.06762075,1873.699951171875
102.67327033,25.06752436,1871.9000244140625
102.67338641,25.06742715,1870.0999755859375
102.67351271,25.06732296,1872.800048828125
102.67364872,25.06718035,1870.4000244140625
102.67388014,25.06694322,1871.5
102.67404645,25.06675821,1871.5999755859375
102.67423367,25.06658989,1875.5999755859375
102.67439085,25.06641501,1875.5
102.67455853,25.06625193,1876.5
102.67478281,25.06608875,1877.4000244140625
102.67499926,25.06592251,1882.699951171875
102.6752459,25.06578368,1882.699951171875
102.67551113,25.06568316,1881.5999755859375
102.67578058,25.06560793,1883.300048828125
102.67606093,25.06555568,1883.9000244140625
102.67636599,25.06553639,1885.800048828125
102.67665649,25.0655138,1885.0
102.6769579,25.06549067,1886.5999755859375
102.67724972,25.06546667,1885.800048828125
102.67752689,25.06544558,1886.4000244140625
102.67777809,25.06542666,1888.300048828125
102.67802577,25.06542116,1890.300048828125
102.67828378,25.06543141,1892.699951171875
102.67854588,25.06542394,1893.4000244140625
102.67879777,25.06543608,1896.0999755859375
102.67902972,25.06545636,1897.699951171875
102.67923258,25.06551239,1899.5999755859375
102.67943961,25.0655719,1898.300048828125
102.67964689,25.0656333,1900.699951171875
102.6798531,25.06571085,1900.699951171875
102.68007168,25.06580627,1900.5999755859375
102.68031373,25.06590227,1900.699951171875
102.68055151,25.06598903,1900.5999755859375
102.68078527,25.0660751,1900.5
102.68100873,25.06617844,1900.5
102.68123143,25.06628138,1900.5999755859375
102.68142287,25.06640489,1900.5999755859375
102.68164629,25.06654015,1900.300048828125
102.68188154,25.06665982,1900.300048828125
102.68205055,25.06674741,1900.199951171875
102.68220049,25.06681468,1900.0
102.68239281,25.0668991,1900.0
102.68260682,25.06699233,1899.9000244140625
102.6828439,25.0670793,1899.800048828125
102.68299953,25.06709892,1899.5999755859375
102.68314594,25.06711212,1899.5
102.68332488,25.0671125,1899.4000244140625
102.68354678,25.06712228,1899.0
102.68376098,25.06711813,1898.9000244140625
102.68400769,25.0671226,1898.699951171875
102.6843863,25.06715318,1898.199951171875
102.68472333,25.06712032,1898.0
102.68503025,25.0671279,1897.800048828125
102.68529977,25.06712432,1897.4000244140625
102.68561535,25.06712711,1897.4000244140625
102.68594195,25.06712064,1897.199951171875
102.68622537,25.0671184,1897.0
102.6865347,25.06710848,1897.0999755859375
102.68682697,25.06707187,1897.0
102.68712636,25.06707351,1896.9000244140625
102.68742177,25.0670758,1896.800048828125
102.68768972,25.06708363,1896.5
102.68794587,25.06706749,1895.5999755859375
102.68815797,25.06705564,1894.199951171875
102.68834788,25.06703957,1893.5999755859375
102.68856059,25.06701387,1893.699951171875
102.68878626,25.06700401,1893.5
102.68903148,25.06701038,1893.199951171875
102.68930933,25.06703569,1892.5999755859375
102.68955908,25.06706579,1892.0999755859375
102.68984635,25.06704244,1892.0
102.69011569,25.06706675,1892.5999755859375
102.69035207,25.06710556,1892.5999755859375
102.69060892,25.06704034,1893.199951171875
102.69085094,25.0670444,1891.5
102.69108568,25.06696809,1891.9000244140625
102.69134511,25.06694577,1891.300048828125
102.69158089,25.06686875,1891.0
102.69180984,25.06678896,1890.800048828125
102.6920088,25.0667288,1890.4000244140625
102.69211754,25.06662092,1890.5999755859375
102.69221483,25.06664433,1890.800048828125
102.69223953,25.06668673,1889.0999755859375
102.69229431,25.06667853,1889.4000244140625
102.6923938,25.06670101,1889.5999755859375
102.69250288,25.06668911,1889.0999755859375
102.69263934,25.06661791,1889.0
102.69281838,25.06655715,1889.5999755859375
102.69300083,25.06649901,1889.5999755859375
102.69322644,25.0664407,1889.5
102.69345462,25.06641285,1888.300048828125
102.69372343,25.06633283,1888.4000244140625
102.69399658,25.06626106,1887.800048828125
102.69428585,25.06619342,1886.699951171875
102.6945626,25.0661154,1886.0999755859375
102.69482923,25.06603973,1885.800048828125
102.69507297,25.06596974,1885.5
102.69530285,25.06590787,1885.199951171875
102.69552411,25.06586045,1884.4000244140625
102.69572019,25.06577246,1882.5999755859375
102.69592832,25.0657257,1881.9000244140625
102.69617287,25.06569516,1881.0999755859375
102.69636842,25.06569921,1881.0
102.69657968,25.06570915,1880.5999755859375
102.69672974,25.06574976,1880.199951171875
102.69680161,25.0657787,1881.199951171875
102.69683824,25.06581219,1881.5999755859375
102.69688511,25.06586253,1882.0999755859375
102.69687555,25.06581655,1882.199951171875
102.69935774,25.0660324,1878.699951171875
102.6995582,25.06603181,1878.5
102.69976971,25.06599001,1877.699951171875
102.69991463,25.06594702,1877.0999755859375
102.70001649,25.06595838,1868.5
102.70004778,25.06589257,1870.5999755859375
102.7001334,25.06586903,1870.0
102.7002291,25.06584992,1869.699951171875
102.70033199,25.06582786,1869.800048828125
102.70042941,25.06579709,1869.0999755859375
102.70051499,25.06578468,1867.0
102.70064209,25.06578828,1866.0999755859375
102.70082553,25.06579759,1863.5999755859375
102.70102534,25.06573079,1863.800048828125
102.70119941,25.06570517,1859.300048828125
102.70139057,25.06564421,1861.0999755859375
102.70166521,25.06569456,1861.0
102.70197555,25.06566882,1860.800048828125
102.70225247,25.06560615,1862.199951171875
102.7024931,25.06557509,1860.300048828125
102.7027312,25.06551836,1859.9000244140625
102.70298932,25.0654764,1859.5
102.70327326,25.06543382,1858.699951171875
102.70352875,25.06538143,1858.0
102.70376896,25.06532511,1857.199951171875
102.70400591,25.06527125,1856.0
102.70419028,25.0652104,1855.5
102.7043666,25.06518349,1854.5
102.70457808,25.0651472,1854.5
102.70474901,25.06510917,1853.5999755859375
102.70491829,25.06507311,1854.5999755859375
102.70510254,25.06503422,1855.699951171875
102.7052862,25.06501287,1855.5
102.70552366,25.06499822,1858.4000244140625
102.70570626,25.06491086,1859.199951171875
102.70591559,25.06480243,1858.699951171875
102.70611831,25.06470078,1858.0999755859375
102.70632699,25.06459901,1858.0
102.7065056,25.06448808,1857.9000244140625
102.70669537,25.06442691,1857.5999755859375
102.70685296,25.06434686,1857.699951171875
102.70700635,25.06421726,1858.4000244140625
102.70717304,25.06411973,1858.5999755859375
102.70725561,25.06399909,1858.4000244140625
102.70734371,25.06392316,1858.199951171875
102.70744877,25.06384305,1858.800048828125
102.70753893,25.06378305,1858.5999755859375
102.70762244,25.06373902,1858.199951171875
102.70768987,25.063676,1858.4000244140625
102.70775781,25.06364587,1858.5999755859375
102.70781777,25.0635995,1858.199951171875
102.7078834,25.0636314,1857.5
102.70794519,25.06359389,1856.300048828125
102.70802059,25.06359202,1856.0
102.70809774,25.06359563,1856.0
102.70816706,25.0636131,1856.0999755859375
102.70820543,25.06365294,1855.800048828125
102.70821574,25.06370675,1855.9000244140625
102.70821417,25.06377028,1855.5999755859375
102.70820123,25.06383966,1855.9000244140625
102.70818166,25.06389758,1855.9000244140625
102.70816163,25.0639422,1855.699951171875
102.70814514,25.06398571,1855.5999755859375
102.70810093,25.06401927,1855.699951171875
102.708088,25.06407676,1854.9000244140625
102.70808555,25.06414545,1853.800048828125
102.70806718,25.06420753,1854.4000244140625
102.70805412,25.06426851,1854.4000244140625
102.70804557,25.06432378,1854.5999755859375
102.70803768,25.06439919,1854.699951171875
102.70802711,25.06447541,1855.0
102.70802919,25.06455555,1855.0
102.70800722,25.06467029,1854.9000244140625
102.70804104,25.06476549,1855.0
102.70808185,25.06487165,1855.0999755859375
102.70807357,25.0650847,1854.9000244140625
102.70809997,25.06525158,1855.0
102.70802422,25.06548923,1854.699951171875
102.70782351,25.06586961,1854.0
102.70784001,25.06622442,1853.699951171875
102.70771362,25.06648944,1854.4000244140625
102.70754758,25.06677032,1855.0
102.70747506,25.06704789,1853.699951171875
102.70746564,25.0673125,1853.9000244140625
102.70745603,25.06756043,1853.9000244140625
102.70743598,25.0677856,1855.300048828125
102.70745354,25.06802229,1855.5
102.70748385,25.06824603,1856.199951171875
102.70736133,25.0684845,1858.4000244140625
102.70724591,25.06870329,1860.800048828125
102.70725528,25.06891143,1863.5
102.707246,25.06912747,1862.800048828125
102.70723717,25.0693352,1863.0
102.70723533,25.06955663,1863.699951171875
102.70724449,25.06975781,1864.0999755859375
102.70722478,25.06996527,1864.699951171875
102.70721515,25.07014938,1865.199951171875
102.70721523,25.07029361,1865.800048828125
102.70722695,25.07039498,1865.9000244140625
102.70721457,25.0705098,1866.0
102.7072349,25.07060298,1866.0
102.70731462,25.07064853,1865.9000244140625
102.70733543,25.07073784,1865.9000244140625
102.70738253,25.07079888,1865.4000244140625
102.70772591,25.07075498,1863.800048828125
102.70797142,25.07074426,1862.699951171875
102.70817761,25.07074006,1862.199951171875
102.70834595,25.07077098,1861.199951171875
102.70859159,25.07080246,1861.0
102.70885516,25.07078323,1859.4000244140625
102.70904881,25.07079823,1859.199951171875
102.70926648,25.07083228,1858.699951171875
102.70946619,25.0708082,1858.5999755859375
102.70958847,25.07082673,1858.5
102.70968471,25.0708454,1858.699951171875
102.70974364,25.07084152,1858.800048828125
102.70976772,25.07089554,1858.0999755859375
102.70972545,25.0709197,1856.699951171875
102.70975478,25.07096008,1856.0
102.71044252,25.07073635,1855.0999755859375
102.71054709,25.07073954,1855.300048828125
102.71085193,25.0709053,1848.699951171875
102.71097069,25.07093917,1848.0
102.7110862,25.07095455,1846.5
102.71138121,25.07089262,1845.0
102.71153884,25.0709477,1843.9000244140625
102.71166603,25.07095672,1840.800048828125
102.71178906,25.07095216,1839.9000244140625
102.71190823,25.07095895,1843.300048828125
102.71203197,25.07096899,1843.5999755859375
102.71215953,25.07097069,1844.0
102.71228829,25.07098082,1846.0999755859375
102.71239061,25.07097683,1846.199951171875
102.712478,25.07097545,1845.9000244140625
102.71255533,25.07098169,1845.4000244140625
102.71263314,25.07097719,1846.4000244140625
102.71269749,25.0709866,1846.4000244140625
102.71278581,25.07100317,1846.0999755859375
102.71287053,25.07101711,1846.5
102.71300257,25.07103683,1844.5999755859375
102.7131368,25.07103469,1844.699951171875
102.71336279,25.07104442,1847.4000244140625
102.71353931,25.07101337,1847.5
102.71373514,25.07104227,1847.0999755859375
102.71391386,25.07102269,1845.4000244140625
102.7141039,25.07100144,1845.699951171875
102.71422053,25.07097715,1846.300048828125
102.71437467,25.07094115,1845.5
102.71453274,25.07088366,1845.699951171875
102.71472845,25.07085052,1845.5999755859375
102.71488527,25.07079676,1845.9000244140625
102.71500708,25.0707044,1845.800048828125
102.71507305,25.07062579,1845.5999755859375
102.71533862,25.07065365,1846.800048828125
102.71553617,25.07064064,1851.0999755859375
102.71570286,25.07061497,1853.800048828125
102.71588225,25.0705922,1852.300048828125
102.71608987,25.07056559,1852.5999755859375
102.71626893,25.07052833,1852.699951171875
102.71648731,25.07056507,1852.0
102.71664527,25.07055389,1852.4000244140625
102.71676806,25.07060439,1851.5
102.71680425,25.07068864,1848.9000244140625
102.71681679,25.07075742,1846.0
102.71687109,25.0708855,1845.5999755859375
102.71698316,25.07103264,1845.300048828125
102.71697524,25.07123141,1847.199951171875
102.71703432,25.07138369,1848.199951171875
102.71712822,25.07158004,1847.9000244140625
102.71717985,25.0717792,1847.0999755859375
102.71726171,25.0719521,1848.800048828125
102.71732706,25.07211156,1849.300048828125
102.71740441,25.07225331,1849.199951171875
102.71745568,25.07237906,1849.199951171875
102.71750548,25.07255786,1849.300048828125
102.71759237,25.07271099,1849.9000244140625
102.71766353,25.07285537,1850.0
102.71770777,25.07298373,1849.800048828125
102.71774886,25.07310861,1850.199951171875
102.71780864,25.07320004,1850.0999755859375
102.71784227,25.0733227,1850.0999755859375
102.71786643,25.07343948,1849.699951171875
102.7178697,25.07355501,1850.5999755859375
102.71794435,25.07368904,1850.800048828125
102.71800426,25.07386382,1849.5999755859375
102.7180548,25.07404453,1850.5
102.71812557,25.07421968,1850.800048828125
102.71816673,25.07437449,1850.800048828125
102.71821387,25.07453133,1850.0999755859375
102.7182971,25.07471946,1851.5
102.71837213,25.0749139,1852.300048828125
102.71843031,25.0750636,1851.699951171875
102.71849273,25.0752331,1852.0999755859375
102.71854889,25.07540987,1852.4000244140625
102.71862769,25.07557513,1852.0
102.71871156,25.07570951,1852.0999755859375
102.71876138,25.0758407,1851.800048828125
102.71879212,25.07594952,1851.699951171875
102.71886844,25.07607033,1851.800048828125
102.7190023,25.07615057,1851.5999755859375
102.71932618,25.07604573,1854.0
102.71960995,25.07601321,1853.4000244140625
102.7198716,25.07594598,1853.9000244140625
102.72012731,25.07584512,1854.5999755859375
102.72033958,25.07576901,1855.199951171875
102.72057941,25.07571735,1855.0
102.72083306,25.07566961,1855.0
102.7213096,25.07563485,1855.300048828125
102.72165621,25.07560541,1855.300048828125
102.72200783,25.07552959,1855.199951171875
102.72228275,25.0754739,1854.5
102.72265056,25.07539312,1855.0
102.72297349,25.07528312,1855.9000244140625
102.72329294,25.07520502,1856.4000244140625
102.72367631,25.0750912,1857.199951171875
102.72424139,25.07497909,1858.5999755859375
102.72455966,25.07485442,1859.699951171875
102.72491161,25.07475361,1860.9000244140625
102.72519928,25.07465773,1861.5999755859375
102.72559314,25.07456632,1861.300048828125
102.72587702,25.0744796,1862.0
102.72622194,25.07439293,1861.800048828125
102.72649269,25.07427025,1862.199951171875
102.72685754,25.07418985,1861.5
102.72719686,25.07411159,1861.5
102.72753496,25.07403359,1861.4000244140625
102.72786917,25.07394032,1861.199951171875
102.73917739,25.06243456,1860.5999755859375
102.742722,25.05022605,1847.199951171875
102.74285847,25.04829386,1846.199951171875
102.7428484,25.04806787,1848.699951171875
102.74284944,25.0479305,1849.4000244140625
102.74287577,25.0478014,1849.9000244140625
102.74287172,25.04769976,1851.0999755859375
102.74288066,25.04753408,1850.699951171875
102.74293273,25.04755843,1861.5999755859375
102.74296263,25.04743034,1861.5
102.74295683,25.04732891,1860.300048828125
102.74293711,25.04725155,1861.300048828125
102.74293057,25.04718118,1862.699951171875
102.7429138,25.04711987,1862.699951171875
102.74289633,25.04706084,1862.199951171875
102.74295141,25.04705718,1864.9000244140625
102.74295568,25.04701188,1868.4000244140625
102.74297001,25.04695913,1867.699951171875
102.74297911,25.0469042,1867.800048828125
102.74300357,25.04684637,1866.9000244140625
102.74299289,25.04678477,1866.699951171875
102.7428222,25.04611798,1867.300048828125
102.74283103,25.04607124,1866.5999755859375
102.74289113,25.04605686,1866.0999755859375
102.7429604,25.046063,1869.0999755859375
102.74300017,25.04609213,1869.5999755859375
102.74295657,25.04605947,1870.4000244140625
102.74290325,25.04606372,1870.9000244140625
102.74297164,25.04575396,1870.5
102.74300916,25.04568743,1870.9000244140625
102.74302142,25.04561216,1871.4000244140625
102.7430485,25.04553806,1871.0999755859375
102.74307469,25.04544246,1873.199951171875
102.74309198,25.04534703,1872.4000244140625
102.74309424,25.04523787,1873.4000244140625
102.74309522,25.04513007,1873.199951171875
102.74309722,25.04502829,1873.199951171875
102.74309828,25.04493527,1872.0999755859375
102.74309122,25.04484378,1870.800048828125
102.74308205,25.0447496,1875.5999755859375
102.74309539,25.04467262,1877.4000244140625
102.74311302,25.0446052,1878.699951171875
102.74313085,25.04454115,1878.5
102.74313721,25.04447936,1879.0
102.74314957,25.04442243,1875.300048828125
102.74315193,25.04435995,1872.5
102.74313936,25.04430659,1875.0999755859375
102.74312524,25.04425522,1873.5
102.7431495,25.04430288,1868.9000244140625
102.74318088,25.04424895,1873.0
102.74317639,25.04418483,1885.4000244140625
102.74316975,25.04409798,1883.0999755859375
102.74316971,25.04400658,1881.699951171875
102.74318867,25.04387778,1879.800048828125
102.74319342,25.04377261,1880.300048828125
102.74320199,25.04366299,1878.9000244140625
102.7431921,25.04354304,1876.5999755859375
102.74320061,25.04342636,1874.0999755859375
102.74321288,25.04332446,1874.4000244140625
102.74322243,25.04319365,1874.300048828125
102.74322478,25.04301858,1874.300048828125
102.74323579,25.04284297,1874.300048828125
102.74324535,25.04267905,1874.300048828125
102.74328732,25.04247149,1874.300048828125
102.74324519,25.04227168,1873.9000244140625
102.74326243,25.04204717,1874.0
102.7432561,25.04175662,1873.800048828125
102.74330783,25.03926781,1873.4000244140625
102.74341281,25.03891054,1874.9000244140625
102.74344273,25.03863946,1873.9000244140625
102.74347855,25.03840181,1877.0999755859375
102.74347823,25.03815578,1874.4000244140625
102.74349099,25.03790405,1874.5999755859375
102.74351158,25.03761103,1875.699951171875
102.74354138,25.03731358,1876.199951171875
102.74356079,25.03702216,1877.0999755859375
102.74356668,25.03673597,1876.699951171875
102.7435899,25.03645031,1877.5
102.74360372,25.03615867,1876.699951171875
102.74361686,25.03585309,1876.4000244140625
102.74363052,25.03550985,1875.9000244140625
102.74365114,25.0351814,1874.300048828125
102.74368707,25.03485369,1875.300048828125
102.74371917,25.03454133,1875.0
102.74375533,25.03422841,1875.300048828125
102.7437763,25.03388791,1875.9000244140625
102.74380544,25.03356009,1875.5999755859375
102.74380671,25.03326718,1875.300048828125
102.74383388,25.03295036,1876.0999755859375
102.74383598,25.03264806,1876.199951171875
102.74385847,25.032378,1875.0
102.74388088,25.03211057,1874.9000244140625
102.74385646,25.03186699,1876.199951171875
102.7438288,25.03163606,1877.4000244140625
102.74380021,25.0314074,1877.5
102.74378821,25.03116587,1878.0999755859375
102.74375248,25.03092566,1877.0
102.74368974,25.03070229,1876.4000244140625
102.7436172,25.03045117,1876.0999755859375
102.74354607,25.03024693,1877.0999755859375
102.74348069,25.03003542,1877.800048828125
102.74341939,25.02983519,1877.199951171875
102.74330677,25.029616,1876.9000244140625
102.74324681,25.02940644,1876.800048828125
102.74311627,25.02915736,1876.5
102.7430057,25.02892489,1876.0999755859375
102.74290119,25.0286804,1876.199951171875
102.7427942,25.02843317,1875.800048828125
102.7426778,25.02814209,1875.4000244140625
102.74256718,25.02790395,1874.9000244140625
102.74247638,25.02763932,1874.5999755859375
102.74237754,25.02740324,1874.800048828125
102.74229319,25.02716285,1874.5
102.74220987,25.02692448,1873.800048828125
102.74216304,25.02672881,1873.5
102.74205668,25.02650439,1873.0
102.74199141,25.0262576,1872.9000244140625
102.74192407,25.02600264,1872.800048828125
102.74182949,25.02576638,1872.5
102.74177261,25.02549113,1871.4000244140625
102.74174597,25.02525016,1871.0999755859375
102.74174056,25.02503253,1870.0999755859375
102.7418016,25.02484081,1867.5
102.74186405,25.02459932,1867.199951171875
102.7419162,25.0243465,1866.0999755859375
102.7419647,25.02409275,1864.699951171875
102.74203915,25.02382489,1864.199951171875
102.74208306,25.02355629,1863.699951171875
102.74214343,25.02328717,1863.699951171875
102.74221769,25.02297171,1863.5
102.74228803,25.02266095,1862.5999755859375
102.74237404,25.02230358,1862.800048828125
102.74241723,25.0220122,1862.5999755859375
102.74247758,25.02178575,1862.5999755859375
102.74252641,25.02153522,1863.0
102.7425936,25.02128049,1862.5
102.74269664,25.02104027,1863.0999755859375
102.74277611,25.02076976,1862.800048828125
102.74281716,25.02053007,1864.0999755859375
102.74286618,25.02028721,1863.9000244140625
102.74288358,25.02004846,1864.0
102.74614682,25.01887387,1861.0
102.74652989,25.01891872,1856.699951171875
102.7470731,25.01909585,1833.9000244140625
102.74738167,25.01907838,1832.0999755859375
102.74771006,25.01910039,1834.0
102.74798515,25.01911316,1839.4000244140625
102.74823576,25.01907975,1845.4000244140625
102.74857946,25.01904394,1846.5
102.74886583,25.01896963,1848.9000244140625
102.74917539,25.01892985,1856.300048828125
102.74944172,25.01887942,1855.5
102.74972534,25.0188187,1853.5
102.75003001,25.01878067,1853.300048828125
102.75035206,25.01876848,1855.0
102.75066339,25.01872675,1857.5
102.75095435,25.01868633,1859.199951171875
102.75124736,25.01862202,1860.5999755859375
102.75151751,25.018555,1859.4000244140625
102.7517803,25.01847123,1859.300048828125
102.75205225,25.01842511,1858.5999755859375
102.75233016,25.01837142,1857.300048828125
102.75263438,25.01830384,1857.199951171875
102.75292085,25.01824597,1856.5999755859375
102.75326352,25.01817628,1857.9000244140625
102.75355706,25.01809999,1861.9000244140625
102.75383645,25.01804391,1865.800048828125
102.75415135,25.01798313,1865.0999755859375
102.75447834,25.01792847,1864.800048828125
102.75477241,25.017857,1865.300048828125
102.75509138,25.01778163,1866.0
102.75542282,25.01766933,1867.800048828125
102.75568698,25.01757743,1867.800048828125
102.75597051,25.01746813,1867.9000244140625
102.75625031,25.01739599,1869.300048828125
102.75652068,25.01728368,1867.5999755859375
102.75675647,25.01717132,1867.4000244140625
102.75701272,25.01705909,1867.9000244140625
102.7572653,25.01695878,1868.699951171875
102.75752268,25.0168115,1868.800048828125
102.75777617,25.01663714,1869.0999755859375
102.75804488,25.01647465,1868.9000244140625
102.7583011,25.01635486,1867.699951171875
102.75854267,25.01618469,1868.0999755859375
102.75873961,25.01595689,1868.199951171875
102.75894844,25.01575074,1868.300048828125
102.75921039,25.01555862,1868.5
102.75944014,25.01534903,1868.800048828125
102.75966216,25.01511343,1869.199951171875
102.75987205,25.01485205,1869.0999755859375
102.76010336,25.01464556,1870.9000244140625
102.76029363,25.01436152,1870.5
102.76053421,25.01411315,1872.0
102.76071613,25.01379814,1872.199951171875
102.76088685,25.01351298,1871.5
102.76105207,25.01324779,1875.300048828125
102.76121888,25.01296537,1873.699951171875
102.76139915,25.01269619,1873.5
102.76155594,25.01242674,1874.4000244140625
102.76169639,25.01215115,1875.0999755859375
102.76182927,25.01188485,1873.5999755859375
102.76199729,25.01163865,1874.300048828125
102.76213023,25.01137553,1873.4000244140625
102.76231384,25.01112038,1873.0999755859375
102.76245973,25.01085334,1873.300048828125
102.76259798,25.01059946,1874.5
102.76273873,25.0103323,1874.5
102.76290911,25.01008556,1875.5999755859375
102.76304708,25.00983466,1876.4000244140625
102.76318754,25.00956289,1877.0
102.76335396,25.00931738,1876.9000244140625
102.76348784,25.00904549,1877.0999755859375
102.76365566,25.00880111,1877.800048828125
102.76380672,25.00856058,1877.800048828125
102.76395819,25.00831236,1876.699951171875
102.7640846,25.00805523,1876.199951171875
102.76420924,25.00777666,1875.300048828125
102.76434548,25.00752494,1875.0999755859375
102.76447647,25.00723556,1874.9000244140625
102.76466596,25.00693397,1874.300048828125
102.76484321,25.00663589,1874.0999755859375
102.76501382,25.00633248,1874.4000244140625
102.76517889,25.0060317,1875.300048828125
102.76537101,25.00574809,1875.5999755859375
102.76553977,25.00548163,1876.4000244140625
102.76568418,25.00518572,1875.199951171875
102.76583733,25.00491951,1875.699951171875
102.76607693,25.00466858,1875.4000244140625
102.76629036,25.00440743,1875.300048828125
102.76656249,25.00416178,1874.300048828125
102.76682047,25.00389956,1874.5
102.7670525,25.00368467,1874.699951171875
102.76732165,25.00346637,1875.300048828125
102.76759901,25.00326987,1875.4000244140625
102.76790782,25.00314095,1875.0
102.76823396,25.00301617,1875.199951171875
102.76858154,25.00292144,1875.9000244140625
102.76889203,25.00281313,1875.5
102.76918123,25.00270912,1875.5999755859375
102.76949844,25.0026756,1876.5999755859375
102.76978432,25.0026027,1877.199951171875
102.77006729,25.00249923,1876.699951171875
102.7703793,25.00241796,1876.699951171875
102.77071505,25.00229081,1876.800048828125
102.77101611,25.00214254,1876.5999755859375
102.77132577,25.0019764,1876.0
102.77167952,25.0018063,1875.9000244140625
102.77198717,25.00158123,1876.4000244140625
102.77229812,25.00135498,1876.5
102.77259212,25.0011046,1876.199951171875
102.77285987,25.00079878,1876.9000244140625
102.77305048,25.00042468,1876.4000244140625
102.77330207,25.00014789,1878.0
102.77350673,24.99986863,1878.4000244140625
102.77374607,24.99962957,1878.5
102.77395603,24.99939194,1879.9000244140625
102.77406974,24.99916277,1880.199951171875
102.77424444,24.99893868,1880.199951171875
102.77443003,24.99872541,1879.699951171875
102.77457051,24.9985387,1880.300048828125
102.77464974,24.99839818,1878.5
102.77471158,24.99826652,1879.699951171875
102.77473682,24.99815318,1880.0999755859375
102.77476608,24.99808751,1878.199951171875
102.77480937,24.99800777,1879.9000244140625
102.77483723,24.99791911,1881.199951171875
102.77489361,24.99780032,1880.199951171875
102.77495299,24.99766446,1879.800048828125
102.77501265,24.99750879,1879.800048828125
102.77506793,24.99734637,1879.800048828125
102.77509452,24.99716795,1880.0999755859375
102.77510249,24.996997,1880.0999755859375
102.77511702,24.99683078,1880.300048828125
102.7751201,24.99667916,1880.300048828125
102.77399704,24.995368,1895.800048828125
102.77392716,24.99530761,1886.199951171875
102.77388509,24.9952551,1887.800048828125
102.77380775,24.99514667,1889.699951171875
102.77378669,24.99502991,1895.5
102.77371192,24.99489891,1899.0
102.77360742,24.99477879,1899.4000244140625
102.77352589,24.99464326,1898.5999755859375
102.77344953,24.99448129,1899.9000244140625
102.77340125,24.99435725,1898.699951171875
102.77336068,24.99426217,1897.300048828125
102.7733124,24.99412554,1896.300048828125
102.77323146,24.99400087,1895.0999755859375
102.77317536,24.99389935,1894.4000244140625
102.77309997,24.99379494,1893.800048828125
102.77307482,24.99368825,1894.300048828125
102.77303036,24.99351051,1893.5999755859375
102.77297902,24.99336611,1893.5
102.77300678,24.9932476,1893.0
102.77309957,24.9931071,1891.9000244140625
102.77313788,24.99295596,1891.4000244140625
102.77323363,24.99280425,1890.800048828125
102.77333828,24.9926433,1889.699951171875
102.77343608,24.99250106,1889.5
102.77350309,24.99229651,1888.0999755859375
102.77353096,24.99211914,1888.5999755859375
102.77360902,24.99195446,1888.199951171875
102.77370633,24.99180323,1888.5
102.77386165,24.99162053,1888.199951171875
102.77396515,24.99142804,1887.9000244140625
102.77408243,24.99125361,1887.9000244140625
102.77421192,24.99104868,1887.699951171875
102.77435694,24.99086401,1887.4000244140625
102.77448738,24.99069168,1887.300048828125
102.77461026,24.99053274,1887.4000244140625
102.77469865,24.99036608,1886.5
102.77473826,24.99018966,1884.9000244140625
102.77482377,24.99003193,1884.5999755859375
102.77493932,24.98987741,1884.199951171875
102.77512579,24.98975606,1883.4000244140625
102.77523255,24.98959999,1883.199951171875
102.77533987,24.98944957,1883.0
102.77541891,24.98932973,1882.800048828125
102.77547534,24.98925831,1882.800048828125
102.77546892,24.98916162,1882.9000244140625
102.77549024,24.98910801,1882.9000244140625
102.77558184,24.98910634,1883.0
102.7756291,24.9891265,1882.4000244140625
102.77558201,24.98910303,1879.0
102.77553584,24.98912042,1876.800048828125
102.7754836,24.98911766,1873.5
102.77553267,24.98913353,1876.0
102.77558629,24.98912993,1877.0
102.77559948,24.98907749,1878.0999755859375
102.77564945,24.98902166,1878.9000244140625
102.77570165,24.98896141,1880.199951171875
102.77576347,24.98889162,1880.9000244140625
102.77582543,24.98881801,1881.800048828125
102.77587806,24.98874395,1882.800048828125
102.77592453,24.98867291,1883.0
102.77600194,24.98857062,1882.800048828125
102.77610127,24.9884606,1883.800048828125
102.77620566,24.98833042,1882.5999755859375
102.77634106,24.98814942,1882.0999755859375
102.77647836,24.98794918,1881.5999755859375
102.77662545,24.98773444,1880.199951171875
102.77677493,24.9875536,1879.5999755859375
102.77691763,24.98739823,1878.0999755859375
102.7770765,24.98722223,1878.199951171875
102.77726185,24.98703771,1877.800048828125
102.77745036,24.98686009,1877.0
102.77764198,24.98667507,1876.199951171875
102.77784496,24.9864657,1875.5999755859375
102.77803448,24.9862486,1875.199951171875
102.77818554,24.98600104,1874.699951171875
102.77834432,24.98577056,1873.9000244140625
102.77848889,24.98551178,1873.4000244140625
102.77862105,24.98525328,1873.199951171875
102.77874445,24.98498801,1872.9000244140625
102.77891838,24.98475475,1872.800048828125
102.77907122,24.98455577,1873.699951171875
102.77920557,24.98436274,1874.0
102.77934176,24.98414772,1874.4000244140625
102.77947754,24.98395263,1873.800048828125
102.7795833,24.98379459,1872.4000244140625
102.77967688,24.98364265,1870.9000244140625
102.77974052,24.98353965,1870.800048828125
102.77975972,24.98348446,1868.5999755859375
102.77977222,24.98343356,1869.4000244140625
102.77981491,24.98339816,1869.699951171875
102.77987591,24.98335719,1868.0999755859375
102.77994019,24.98332255,1868.300048828125
102.77999602,24.98330389,1868.0999755859375
102.78005011,24.98331234,1867.0
102.78010057,24.98334217,1867.699951171875
102.7808216,24.98301398,1875.199951171875
102.78087744,24.98326398,1876.9000244140625
102.7809099,24.98330656,1879.9000244140625
102.78095255,24.98333555,1877.9000244140625
102.78106107,24.98342149,1874.0999755859375
102.78117408,24.98352073,1870.5999755859375
102.78129643,24.98360885,1870.699951171875
102.78142184,24.98367613,1870.699951171875
102.78152957,24.98375622,1870.800048828125
102.78160632,24.98381968,1871.0999755859375
102.78167073,24.98386655,1874.4000244140625
102.78179388,24.98380188,1870.699951171875
102.78187321,24.98371263,1870.5999755859375
102.78195737,24.98361313,1870.9000244140625
102.78204241,24.98350814,1871.9000244140625
102.782095,24.9834353,1872.0
102.7821354,24.98337814,1874.0999755859375
102.78217227,24.98333083,1874.5999755859375
102.78219926,24.98328773,1874.699951171875
102.78214378,24.98330911,1875.5
102.78210165,24.9833394,1871.4000244140625
102.78207901,24.98338294,1869.5999755859375
102.78206441,24.98343315,1869.199951171875
102.78205202,24.98348243,1869.5999755859375
102.78205014,24.98353206,1870.4000244140625
102.78207277,24.9835801,1871.0999755859375
102.78209732,24.98362615,1869.0999755859375
102.78210646,24.98368055,1870.0999755859375
102.78208804,24.98373136,1870.0
102.78208804,24.98373136,1870.0
</coordinates>
          </LineString>
        </MultiGeometry>
      </Placemark>
      <Placemark>
        <name>终点 (2012-07-05 08:24:38)</name>
        <description>海拔: 1870.00 m
精度: 18.00 m</description>
        <TimeStamp>
          <when>2012-07-05T08:24:38Z</when>
        </TimeStamp>
        <styleUrl>#ICON_END</styleUrl>
        <Point>
          <coordinates>102.78208804,24.98373136,1870.0</coordinates>
        </Point>
      </Placemark>
    </Folder>
  </Document>
</kml>